<svg xmlns="http://www.w3.org/2000/svg" width="24" height="24" viewBox="0 0 24 24">
    <g fill="none" fill-rule="evenodd">
        <g>
            <g>
                <g>
                    <g fill="#FA4616" fill-rule="nonzero">
                        <path d="M5.238.086c-.783 0-1.428.646-1.428 1.429v.952H1.429C.645 2.467 0 3.113 0 3.896V18.18c0 .784.645 1.429 1.429 1.429H18.57c.784 0 1.429-.645 1.429-1.429V3.896c0-.783-.645-1.429-1.429-1.429h-2.38v-.952c0-.783-.646-1.429-1.43-1.429-.782 0-1.428.646-1.428 1.429v.952H6.667v-.952C6.667.732 6.02.086 5.238.086zm0 .953c.272 0 .476.204.476.476v2.857c0 .272-.204.476-.476.476s-.476-.204-.476-.476V1.515c0-.272.204-.476.476-.476zm9.524 0c.272 0 .476.204.476.476v2.857c0 .272-.204.476-.476.476s-.476-.204-.476-.476V1.515c0-.272.204-.476.476-.476zM.952 7.705h18.096v10.476c0 .272-.205.477-.477.477H1.43c-.272 0-.477-.205-.477-.477V7.705z" transform="translate(-188.000000, -19.000000) translate(188.000000, 19.000000) translate(2.000000, 2.000000)"/>
                    </g>
                    <g stroke="#FA4616" stroke-linecap="round" stroke-linejoin="round" stroke-width="1.089">
                        <path d="M2.2 4.667L7 0M2.2 4.667L0 2.528" transform="translate(-188.000000, -19.000000) translate(188.000000, 19.000000) translate(2.000000, 2.000000) translate(7.000000, 11.000000)"/>
                    </g>
                </g>
            </g>
        </g>
    </g>
</svg>
